# Blender v2.79 (sub 0) OBJ File: 'scena.blend'
# www.blender.org
mtllib cross.mtl
o Cube_Cube.001
v -3.767797 1.590393 10.422813
v -3.973099 1.241719 10.422816
v -3.733102 1.172873 10.354819
v -3.591168 1.413927 10.354817
v -5.075522 2.360391 10.422813
v -5.280824 2.011717 10.422816
v -3.767797 1.590393 9.982860
v -3.973099 1.241719 9.981568
v -5.280824 2.011717 9.981568
v -5.075522 2.360391 9.982860
v -5.461185 2.194384 10.053534
v -5.322752 2.429491 10.054404
v -4.039044 2.311806 10.425427
v -3.984234 2.279534 10.425427
v -3.970871 2.493139 10.328563
v -4.001832 2.511369 10.328563
v -4.313095 2.473170 10.425427
v -4.367905 2.505442 10.425427
v -5.488755 0.601854 10.425427
v -5.433945 0.569582 10.425427
v -4.039044 2.311807 9.980189
v -3.984234 2.279534 9.980189
v -5.105084 0.375946 9.980188
v -5.159894 0.408218 9.980188
v -5.284932 0.168211 10.029765
v -5.208438 0.395567 10.029765
v -4.367905 2.505443 9.980189
v -5.488755 0.601854 9.980188
v -5.105084 0.375946 10.425427
v -5.208438 0.395567 10.375852
v -5.254323 0.220197 10.375852
v -5.583161 0.343811 10.029765
v -5.552551 0.395797 10.375852
v -5.453536 0.466518 10.375852
v -4.156639 2.602521 10.328563
v -4.156639 2.602521 10.077054
v -4.187600 2.620751 10.077054
v -4.187600 2.620751 10.328563
v -4.313095 2.473170 9.980189
v -3.970871 2.493139 10.077054
v -5.322752 2.429491 10.351060
v -5.461185 2.194384 10.351061
v -3.733102 1.172873 10.049765
v -3.591168 1.413928 10.050657
v -4.001832 2.511369 10.077054
v -4.093854 2.344079 9.980189
v -4.032794 2.529600 10.077054
v -4.148664 2.376352 9.980189
v -4.063755 2.547830 10.077054
v -4.203475 2.408625 9.980189
v -4.094716 2.566060 10.077054
v -4.258285 2.440897 9.980189
v -4.125678 2.584291 10.077054
v -4.032794 2.529600 10.328563
v -4.063755 2.547830 10.328563
v -4.094716 2.566060 10.328563
v -4.125678 2.584291 10.328563
v -5.159894 0.408218 10.425427
v -5.214705 0.440491 10.425427
v -5.372714 0.214012 10.375852
v -5.269515 0.472764 10.425427
v -5.395408 0.272911 10.375852
v -5.324325 0.505036 10.425427
v -5.401511 0.359990 10.375852
v -5.379135 0.537309 10.425427
v -5.487253 0.311811 10.375852
v -5.484145 0.414532 10.029765
v -5.517863 0.259826 10.029765
v -5.432120 0.308004 10.029765
v -5.426018 0.220926 10.029765
v -5.403324 0.162026 10.029765
v -5.433945 0.569582 9.980188
v -5.379135 0.537309 9.980188
v -5.324325 0.505036 9.980188
v -5.269515 0.472764 9.980188
v -5.214705 0.440491 9.980188
v -4.093854 2.344079 10.425427
v -4.148664 2.376352 10.425427
v -4.203475 2.408624 10.425427
v -4.258285 2.440897 10.425427
vt 0.353550 0.646450
vt 0.646450 0.646450
vt 0.646450 0.646450
vt 0.353550 0.646450
vt 0.353550 0.353550
vt 0.646450 0.353550
vt 0.646450 0.646450
vt 0.353550 0.646450
vt 0.353550 0.353550
vt 0.646450 0.353550
vt 0.353550 0.353550
vt 0.646450 0.353550
vt 0.646450 0.646450
vt 0.353550 0.646450
vt 0.353550 0.353550
vt 0.646450 0.353550
vt 0.646450 0.646450
vt 0.353550 0.646450
vt 0.353550 0.353550
vt 0.646450 0.353550
vt 0.604607 0.646450
vt 0.646450 0.646450
vt 0.646450 0.646450
vt 0.604607 0.646450
vt 0.395393 0.646450
vt 0.353550 0.646450
vt 0.353550 0.353550
vt 0.395393 0.353550
vt 0.395393 0.646450
vt 0.353550 0.646450
vt 0.353550 0.353550
vt 0.395393 0.353550
vt 0.353550 0.353550
vt 0.395393 0.353550
vt 0.646450 0.646450
vt 0.353550 0.646450
vt 0.353550 0.353550
vt 0.646450 0.353550
vt 0.646450 0.646450
vt 0.353550 0.646450
vt 0.353550 0.353550
vt 0.646450 0.353550
vt 0.646450 0.395393
vt 0.353550 0.395393
vt 0.646450 0.353550
vt 0.353550 0.353550
vt 0.646450 0.353550
vt 0.353550 0.353550
vt 0.395393 0.353550
vt 0.353550 0.353550
vt 0.646450 0.353550
vt 0.646450 0.395393
vt 0.353550 0.395393
vt 0.353550 0.353550
vt 0.646450 0.353550
vt 0.604607 0.646450
vt 0.646450 0.646450
vt 0.646450 0.646450
vt 0.604607 0.646450
vt 0.646450 0.646450
vt 0.353550 0.646450
vt 0.646450 0.646450
vt 0.353550 0.646450
vt 0.646450 0.646450
vt 0.353550 0.646450
vt 0.646450 0.353550
vt 0.353550 0.353550
vt 0.646450 0.353550
vt 0.353550 0.353550
vt 0.353550 0.353550
vt 0.646450 0.353550
vt 0.353550 0.646450
vt 0.353550 0.353550
vt 0.646450 0.353550
vt 0.646450 0.646450
vt 0.646450 0.646450
vt 0.353550 0.646450
vt 0.646450 0.646450
vt 0.353550 0.646450
vt 0.395393 0.646450
vt 0.353550 0.646450
vt 0.437236 0.646450
vt 0.437236 0.646450
vt 0.479079 0.646450
vt 0.479079 0.646450
vt 0.520921 0.646450
vt 0.520921 0.646450
vt 0.562764 0.646450
vt 0.562764 0.646450
vt 0.353550 0.604607
vt 0.646450 0.604607
vt 0.353550 0.562764
vt 0.646450 0.562764
vt 0.353550 0.520921
vt 0.646450 0.520921
vt 0.353550 0.479079
vt 0.646450 0.479079
vt 0.353550 0.437236
vt 0.646450 0.437236
vt 0.646450 0.353550
vt 0.604607 0.353550
vt 0.604607 0.353550
vt 0.562765 0.353550
vt 0.562765 0.353550
vt 0.520922 0.353550
vt 0.520922 0.353550
vt 0.479079 0.353550
vt 0.479079 0.353550
vt 0.437236 0.353550
vt 0.437236 0.353550
vt 0.646450 0.646450
vt 0.353550 0.646450
vt 0.353550 0.604607
vt 0.646450 0.604607
vt 0.353550 0.562764
vt 0.646450 0.562764
vt 0.353550 0.520921
vt 0.646450 0.520921
vt 0.353550 0.479079
vt 0.646450 0.479079
vt 0.353550 0.437236
vt 0.646450 0.437236
vt 0.646450 0.353550
vt 0.604607 0.353550
vt 0.604607 0.353550
vt 0.646450 0.353550
vt 0.562765 0.353550
vt 0.562765 0.353550
vt 0.520922 0.353550
vt 0.520922 0.353550
vt 0.479079 0.353550
vt 0.479079 0.353550
vt 0.437236 0.353550
vt 0.437236 0.353550
vt 0.562764 0.646450
vt 0.520921 0.646450
vt 0.479079 0.646450
vt 0.437236 0.646450
vt 0.395393 0.646450
vt 0.353550 0.646450
vt 0.437236 0.646450
vt 0.479079 0.646450
vt 0.520921 0.646450
vt 0.562764 0.646450
vn 0.4977 0.5138 0.6987
vn -0.2078 -0.6845 0.6988
vn 0.3583 -0.7930 0.4926
vn 0.8673 0.0714 0.4926
vn 0.2041 0.6861 0.6983
vn -0.5009 -0.5113 0.6983
vn 0.4981 0.5149 -0.6977
vn -0.2071 -0.6836 -0.6998
vn -0.5005 -0.5102 -0.6994
vn 0.2049 0.6869 -0.6972
vn -0.8686 -0.0670 -0.4909
vn -0.3620 0.7934 -0.4893
vn 0.1180 0.2005 0.9725
vn 0.7244 -0.1107 0.6804
vn 0.7709 0.4766 0.4225
vn 0.4324 0.7344 0.5231
vn -0.4482 0.5798 0.6804
vn -0.6469 0.2043 0.7347
vn -0.0820 -0.1128 0.9902
vn 0.1180 0.2005 -0.9725
vn 0.7244 -0.1107 -0.6804
vn 0.4801 -0.4507 -0.7525
vn -0.0662 -0.0988 -0.9929
vn -0.4401 -0.7963 -0.4149
vn -0.0211 -0.5135 -0.8578
vn -0.4482 0.5798 -0.6804
vn -0.6490 0.2243 -0.7270
vn 0.4727 -0.4619 0.7505
vn -0.0508 -0.5339 0.8440
vn -0.4078 -0.7539 0.5150
vn -0.5655 -0.7074 -0.4239
vn -0.5336 -0.6592 0.5298
vn -0.3343 -0.3319 0.8821
vn 0.4324 0.7344 -0.5231
vn 0.0427 0.9053 -0.4225
vn 0.0427 0.9053 0.4225
vn 0.7709 0.4765 -0.4225
vn -0.3624 0.7927 0.4901
vn -0.8690 -0.0677 0.4901
vn 0.3587 -0.7923 -0.4934
vn 0.8677 0.0721 -0.4918
vn -0.0796 -0.1228 0.9892
vn 0.0847 -0.2141 0.9731
vn -0.1187 -0.8212 0.5582
vn -0.1007 -0.0645 0.9928
vn -0.7314 -0.2073 0.6496
vn -0.0539 -0.1025 0.9933
vn -0.2225 -0.4072 0.8858
vn -0.1329 -0.0828 0.9876
vn -0.4971 -0.6615 0.5614
vn -0.3045 -0.3336 -0.8921
vn -0.5213 -0.7255 -0.4492
vn -0.2403 -0.4486 -0.8608
vn -0.7876 -0.2321 -0.5707
vn -0.1734 -0.8759 -0.4503
vn -0.0667 -0.0831 -0.9943
vn -0.0963 -0.0644 -0.9933
vn -0.0421 -0.0804 -0.9958
vn -0.0798 -0.0514 -0.9955
vn 0.1072 -0.2000 -0.9739
usemtl Wooden
s 1
f 1/1/1 2/2/2 3/3/3 4/4/4
f 2/2/2 1/1/1 5/5/5 6/6/6
f 7/7/7 8/8/8 9/9/9 10/10/10
f 10/10/10 9/9/9 11/11/11 12/12/12
f 1/13/1 7/14/7 10/15/10 5/16/5
f 8/17/8 2/18/2 6/19/6 9/20/9
f 13/21/13 14/22/14 15/23/15 16/24/16
f 17/25/13 18/26/17 19/27/18 20/28/19
f 21/29/20 22/30/21 23/31/22 24/32/23
f 24/32/23 23/31/22 25/33/24 26/34/25
f 18/35/17 27/36/26 28/37/27 19/38/18
f 22/39/21 14/40/14 29/41/28 23/42/22
f 30/43/29 26/44/25 25/33/24 31/45/30
f 19/38/18 28/37/27 32/46/31 33/47/32
f 20/28/19 19/27/18 33/48/32 34/49/33
f 23/42/22 29/41/28 31/50/30 25/51/24
f 35/52/16 36/53/34 37/54/35 38/55/36
f 39/56/20 27/57/26 37/58/35 36/59/34
f 27/36/26 18/35/17 38/60/36 37/61/35
f 14/40/14 22/39/21 40/62/37 15/63/15
f 41/64/38 12/65/12 11/11/11 42/66/39
f 5/16/5 10/15/10 12/67/12 41/68/38
f 6/6/6 5/5/5 41/69/38 42/66/39
f 9/20/9 6/19/6 42/70/39 11/71/11
f 3/3/3 43/72/40 44/73/41 4/74/4
f 8/8/8 7/7/7 44/75/41 43/72/40
f 7/14/7 1/13/1 4/76/4 44/77/41
f 2/18/2 8/17/8 43/78/40 3/79/3
f 22/30/21 21/29/20 45/80/34 40/81/37
f 21/29/20 46/82/20 47/83/34 45/80/34
f 46/82/20 48/84/20 49/85/34 47/83/34
f 48/84/20 50/86/20 51/87/34 49/85/34
f 50/86/20 52/88/20 53/89/34 51/87/34
f 52/88/20 39/56/20 36/59/34 53/89/34
f 15/23/15 40/81/37 45/90/34 16/91/16
f 16/91/16 45/90/34 47/92/34 54/93/16
f 54/93/16 47/92/34 49/94/34 55/95/16
f 55/95/16 49/94/34 51/96/34 56/97/16
f 56/97/16 51/96/34 53/98/34 57/99/16
f 57/99/16 53/98/34 36/53/34 35/52/16
f 29/100/28 58/101/42 30/102/29 31/45/30
f 58/101/42 59/103/43 60/104/44 30/102/29
f 59/103/43 61/105/45 62/106/46 60/104/44
f 61/105/45 63/107/47 64/108/48 62/106/46
f 63/107/47 65/109/49 66/110/50 64/108/48
f 65/109/49 20/28/19 34/49/33 66/110/50
f 33/111/32 32/112/31 67/113/51 34/114/33
f 34/114/33 67/113/51 68/115/52 66/116/50
f 66/116/50 68/115/52 69/117/53 64/118/48
f 64/118/48 69/117/53 70/119/54 62/120/46
f 62/120/46 70/119/54 71/121/55 60/122/44
f 60/122/44 71/121/55 26/44/25 30/43/29
f 28/123/27 72/124/56 67/125/51 32/126/31
f 72/124/56 73/127/57 68/128/52 67/125/51
f 73/127/57 74/129/58 69/130/53 68/128/52
f 74/129/58 75/131/59 70/132/54 69/130/53
f 75/131/59 76/133/60 71/134/55 70/132/54
f 76/133/60 24/32/23 26/34/25 71/134/55
f 27/57/26 39/56/20 72/124/56 28/123/27
f 39/56/20 52/88/20 73/127/57 72/124/56
f 52/88/20 50/86/20 74/129/58 73/127/57
f 50/86/20 48/84/20 75/131/59 74/129/58
f 48/84/20 46/82/20 76/133/60 75/131/59
f 46/82/20 21/29/20 24/32/23 76/133/60
f 14/22/14 13/21/13 58/101/42 29/100/28
f 13/21/13 77/135/13 59/103/43 58/101/42
f 77/135/13 78/136/13 61/105/45 59/103/43
f 78/136/13 79/137/13 63/107/47 61/105/45
f 79/137/13 80/138/13 65/109/49 63/107/47
f 80/138/13 17/25/13 20/28/19 65/109/49
f 18/26/17 17/25/13 35/139/16 38/140/36
f 17/25/13 80/138/13 57/141/16 35/139/16
f 80/138/13 79/137/13 56/142/16 57/141/16
f 79/137/13 78/136/13 55/143/16 56/142/16
f 78/136/13 77/135/13 54/144/16 55/143/16
f 77/135/13 13/21/13 16/24/16 54/144/16
