# Blender MTL File: 'scena.blend'
# Material Count: 1

newmtl Material_0
Ns 0.000000
Ka 1.000000 1.000000 1.000000
Kd 1.000000 1.000000 1.000000
Ks 0.000000 0.000000 0.000000
Ke 0.000000 0.000000 0.000000
Ni 1.000000
d 1.000000
illum 2
map_Kd acroportrait01.jpg
